[gd_scene load_steps=2 format=2]

[ext_resource path="res://zmail/InboxesHBox.gd" type="Script" id=2]

[node name="Control" type="Control"]
anchor_right = 1.0
anchor_bottom = 1.0

[node name="InboxesHBox" type="HBoxContainer" parent="."]
anchor_right = 1.0
anchor_bottom = 1.0
script = ExtResource( 2 )
